…
Total Fertility Rate: To observe the aggregate impact of urbanization on
family size.

We hypothesize a negative correlation between urbanization and teen
pregnancy, consistent with the “opportunity cost” theory observed in the
literature. However, the relationship with total fertility remains an
open question: does the “wealth shock” of developed nations outweigh the
rising costs of urban living?

## Methods

## Data

    ## # A tibble: 217 × 82
    ##    d           cname_s cleanfuel_pop electric_pop agedep agedep_old agedep_young
    ##    <chr>       <chr>           <dbl>        <dbl>  <dbl>      <dbl>        <dbl>
    ##  1 Afghanistan AFG              37.1         85.3   85.0       4.36         80.6
    ##  2 Albania     ALB              85.4        100     49.3      23.5          25.7
    ##  3 Algeria     DZA              99.7        100     58.8       9.82         49.0
    ##  4 American S… ASM              NA           NA     54.3      11.0          43.3
    ##  5 Andorra     AND             100          100     38.2      20.7          17.5
    ##  6 Angola      AGO              50           48.5   90.6       5.29         85.3
    ##  7 Antigua an… ATG             100          100     41.4      15.2          26.3
    ##  8 Argentina   ARG              99.9        100     53.3      18.5          34.9
    ##  9 Armenia     ARM              98.7        100     48.8      19.2          29.5
    ## 10 Aruba       ABW              NA           99.9   49.8      23.5          26.3
    ## # ℹ 207 more rows
    ## # ℹ 75 more variables: consume_poor <dbl>, socins_pop <dbl>, socins_poor <dbl>,
    ## #   safetynet_pop <dbl>, safetynet_poor <dbl>, unempins_pop <dbl>,
    ## #   unempins_poor <dbl>, diabetes <lgl>, university <dbl>,
    ## #   university_men <dbl>, university_female <dbl>, secondary <dbl>,
    ## #   secondary_men <dbl>, secondary_female <dbl>, postsec <dbl>,
    ## #   postsec_men <dbl>, postsec_fem <dbl>, hiv_y <dbl>, hiv_a <dbl>, …
…
